Name,Age,Equipment,Sex,Division,BodyweightKg,WeightClassKg,Best3SquatKg,Best3BenchKg,Best3DeadliftKg,TotalKg,Event,Place,Tested
Jacqueline Stone,40,Multi-ply,F,FM1-AD,111.4,90+,,147.5,,147.5,B,1,Yes
Erin Zemanovic,49,Multi-ply,F,FM2-AD,81.28,82.5,,107.5,,107.5,B,2,Yes
Rachel Nutter,48,Multi-ply,F,FM2-AD,144.51,90+,,190,,190,B,1,Yes
Ann Lenz,40,Multi-ply,F,FO-AD,80.83,82.5,227.5,127.5,170,525,SBD,1,Yes
Kathy Johnson,30,Multi-ply,F,FO-AD,82.74,90,,142.5,,142.5,B,1,Yes
Darlene Delk,41,Wraps,F,FM1R-AD,88.59,90,112.5,65,145,322.5,SBD,1,Yes
Nicole Umland,47,Wraps,F,FM2R-AD,59.96,60,80,45,122.5,247.5,SBD,1,Yes
Jacqueline Geppert,42,Raw,F,FM1R-AD,77.75,82.5,,85,,85,B,1,Yes
Barb Welp,47,Raw,F,FM2R-AD,80.38,82.5,,,130,130,D,1,Yes
Donna Adams,46,Wraps,F,FM2R-AD,86.82,90,152.5,80,162.5,395,SBD,1,Yes
Julie Valenzuela,43,Raw,F,FM1R-AD,121.56,90+,,50,,50,B,1,Yes
Tina Jones,59,Raw,F,FM4R-AD,106.05,90+,,67.5,,67.5,B,1,Yes
Kayla Forcier,24,Wraps,F,FOR-AD,50.89,52,137.5,77.5,145,360,SBD,1,Yes
Bridget Schneider,33,Wraps,F,FOR-AD,67.49,67.5,117.5,62.5,150,330,SBD,1,Yes
Alyssa Dirkes,27,Wraps,F,FOR-AD,74.21,75,142.5,70,147.5,360,SBD,2,Yes
Siera Brown,32,Wraps,F,FOR-AD,72.39,75,142.5,77.5,160,380,SBD,1,Yes
Shawna Puopolo,45,Wraps,F,FOR-AD,82.01,82.5,92.5,,,,SBD,DQ,Yes
Kristy Kinney,26,Wraps,F,FOR-AD,90.81,90+,127.5,50,135,312.5,SBD,1,Yes
Aubrie Harrington,16,Wraps,F,FT2R-AD,55.79,56,97.5,42.5,120,260,SBD,1,Yes
Cinda Dixon,42,Multi-ply,F,FM1,94.71,90+,,105,,105,B,1,
Liane Sabourin,44,Multi-ply,F,FM1,135.44,90+,70,,190,,SBD,DQ,
Elizabeth Grundy,55,Multi-ply,F,FM4,59.6,60,205,,,,SBD,DQ,
Belinda Clary,44,Multi-ply,F,FO,66.13,67.5,220,125,185,530,SBD,2,
Jeannie Nutter,34,Multi-ply,F,FO,67.13,67.5,255,140,207.5,602.5,SBD,1,
Maria Bouchard,44,Raw,F,FM1R,66.95,67.5,,,97.5,97.5,D,1,
Stephanie Merfeld,48,Raw,F,FM2R,98.43,90+,,60,,60,B,1,
Whitney Hanson,54,Wraps,F,FM3R,58.88,60,82.5,42.5,102.5,227.5,SBD,1,Yes
Monica Johnson,60,Wraps,F,FOR,59.78,60,100,52.5,130,282.5,SBD,1,
Caitlin Marsh,27,Wraps,F,FOR,67.49,67.5,60,42.5,80,182.5,SBD,2,
Danielle DeBehnke,38,Wraps,F,FOR,65.05,67.5,75,45,122.5,242.5,SBD,1,
Noemi Dreier,24,Wraps,F,FOR,80.92,82.5,115,47.5,120,282.5,SBD,1,
Jennifer Blake,41,Wraps,F,FOR,84.19,90,112.5,70,142.5,325,SBD,2,
Jessica Putland,26,Wraps,F,FOR,89.54,90,182.5,87.5,215,485,SBD,1,
Sarah Fox,35,Raw,F,FPFR,83.1,90,,,132.5,132.5,D,1,Yes
Abbie Raudabaugh,39,Raw,F,FSR,66.5,67.5,,,122.5,122.5,D,1,Yes
Nikki Mensen,39,Raw,F,FSR,115.48,90+,,,115,115,D,1,
Allie Bouchard,14,Raw,F,FT1R,50.17,52,,,72.5,72.5,D,1,
Alex Bruns,14,Wraps,F,FT1R,59.78,60,57.5,,67.5,,SBD,DQ,
Emma Salazar,14,Raw,F,FT1R,89.72,90,,,127.5,127.5,D,1,
Samantha Quillen,17,Wraps,F,FT2R,88.81,90,65,32.5,125,222.5,SBD,1,
Hattie Jenkins,16,Wraps,F,FT2R,102.06,90+,85,50,97.5,232.5,SBD,1,
Amelia Merfeld,18,Wraps,F,FT3R,50.35,52,55,45,72.5,172.5,SBD,1,
Jerry Adkins,44,Multi-ply,M,MM1-AD,114.8,125,,170,,170,B,1,Yes
Howard Penrose,52,Multi-ply,M,MM3-AD,149.78,140+,,235,,235,B,1,Yes
Matt Dahl,27,Multi-ply,M,MO-AD,80.92,82.5,295,82.5,250,627.5,SBD,1,Yes
Jeremy Thomas,38,Multi-ply,M,MO-AD,89.58,90,337.5,,,,SBD,DQ,Yes
Austin Patkos,24,Multi-ply,M,MO-AD,101.38,110,307.5,197.5,300,805,SBD,1,Yes
Steve Boring,31,Multi-ply,M,MO-AD,115.94,125,,247.5,,247.5,B,1,Yes
Jordan Gibson #1,26,Multi-ply,M,MO-AD,120.25,125,395,215,260,870,SBD,2,Yes
Kyle Duchsherer,37,Multi-ply,M,MO-AD,124.6,125,345,252.5,272.5,870,SBD,1,Yes
Brandon Bunn,26,Multi-ply,M,MO-AD,139.3,140,420,265,287.5,972.5,SBD,2,Yes
Nate Yelton,28,Multi-ply,M,MO-AD,136.44,140,460,307.5,290,1057.5,SBD,1,Yes
Behzad Bakhshandeh,28,Multi-ply,M,MO-AD,185.97,140+,,227.5,,227.5,B,1,Yes
Walter Leher,41,Multi-ply,M,MO-AD,152.18,140+,380,260,270,910,SBD,1,Yes
Brandon Van der Marliere,23,Raw,M,MJR-AD,88.31,90,,,320,320,D,1,Yes
Nathan Rosa,41,Raw,M,MM1R-AD,116.12,125,,185,,185,B,1,Yes
Scott Sutherlin,47,Wraps,M,MM2R-AD,109.36,110,250,167.5,250,667.5,SBD,1,Yes
Dane Anderson,24,Wraps,M,MOR-AD,83.46,90,217.5,137.5,250,605,SBD,1,Yes
Kolby Harrington,17,Wraps,M,MOR-AD,97.52,100,250,112.5,260,622.5,SBD,1,Yes
Doug Staley,29,Raw,M,MOR-AD,164.29,140+,,,300,300,D,1,Yes
Kyle Norman,36,Wraps,M,MSR-AD,79.92,82.5,185,132.5,230,547.5,SBD,1,Yes
Brandon Gast,35,Wraps,M,MSR-AD,104.92,110,185,110,205,500,SBD,2,Yes
Brad Wozniak,37,Wraps,M,MSR-AD,108.27,110,187.5,160,240,587.5,SBD,1,Yes
Andy Bosnyak,40,Multi-ply,M,MM1,122.88,125,,,,,B,DQ,
Jason Gibson,46,Multi-ply,M,MM2,108.91,110,,,,,B,DQ,
Jeff Brown,48,Multi-ply,M,MM2,131,140,327.5,,,,SBD,DQ,
Bill Carlough,58,Multi-ply,M,MM4,86.05,90,335,250,232.5,817.5,SBD,1,
John Lenz,46,Multi-ply,M,MO,117.93,125,297.5,207.5,227.5,732.5,SBD,2,
Joe Grosz,38,Multi-ply,M,MO,123.97,125,415,285,322.5,1022.5,SBD,1,
Kevin Frey,40,Multi-ply,M,MO,132,140,,250,,250,B,1,
Marshall Johnson,36,Multi-ply,M,MO,138.35,140,502.5,355,387.5,1245,SBD,1,
Frankie Puopolo,27,Multi-ply,M,MO,128.14,140,350,,,,SBD,DQ,
Joey Kouba,33,Multi-ply,M,MO,174.13,140+,,162.5,,162.5,B,2,
Brad Slining,45,Multi-ply,M,MO,168.83,140+,,335,,335,B,1,
Nathan Baptist,35,Multi-ply,M,MO,222.26,140+,555,342.5,302.5,1200,SBD,1,
Corey Britton,32,Multi-ply,M,MO,154.99,140+,415,,350,,SBD,DQ,
Josh Smith #7,35,Multi-ply,M,MS,66.68,67.5,,97.5,,97.5,B,1,
Brian Reed,37,Multi-ply,M,MS,117.93,125,,,,,SBD,DQ,
Chris Miller #5,39,Multi-ply,M,MS,131.27,140,350,272.5,142.5,765,SBD,1,
Seth Tolbert,22,Wraps,M,MJR,107.09,110,292.5,215,295,802.5,SBD,1,
Gabe Bonneville,40,Wraps,M,MM1R,109.04,110,307.5,170,305,782.5,SBD,1,
Michael Risher,43,Raw,M,MM1R,115.85,125,,,242.5,242.5,D,1,
Mark Grothe,54,Raw,M,MM3R,99.34,100,,185,,185,B,1,
Chuck Slane,50,Wraps,M,MM3R,101.24,110,147.5,102.5,162.5,412.5,SBD,2,
Scorpion Rodriguez,53,Wraps,M,MM3R,122.79,125,227.5,125,227.5,580,SBD,1,
Ryan Marx,32,Wraps,M,MOR,98.66,100,165,117.5,197.5,480,SBD,2,
Shawn Frankl,42,Wraps,M,MOR,98.34,100,320,227.5,295,842.5,SBD,1,
Jon Idelson,33,Wraps,M,MOR,99.93,100,,142.5,,,SBD,DQ,
Lee Carter,32,Wraps,M,MOR,104.6,110,190,127.5,222.5,540,SBD,3,
Patrick Elkin,34,Wraps,M,MOR,108.54,110,230,155,227.5,612.5,SBD,2,
Shawn Chase,28,Wraps,M,MOR,103.96,110,320,195,295,810,SBD,1,
Brandon Brigham,33,Raw,M,MOR,116.3,125,,,,,B,DQ,
Brad Neitzel,30,Raw,M,MOR,139.34,140,,,365,365,D,1,
Mike Langel,27,Wraps,M,MOR,133.36,140,272.5,147.5,262.5,682.5,SBD,3,
Luke Dreier,33,Wraps,M,MOR,133.63,140,312.5,205,267.5,785,SBD,2,
Nate McLaughlin,27,Wraps,M,MOR,125.83,140,350,210,297.5,857.5,SBD,1,
Damon Dixon,41,Raw,M,MOR,171.82,140+,,212.5,,212.5,B,1,
Marvin Harrington,38,Wraps,M,MOR,140.75,140+,352.5,200,307.5,860,SBD,2,
Ethan Manning,29,Wraps,M,MOR,168.06,140+,410,187.5,295,892.5,SBD,1,
Bradyn Barclay,17,Wraps,M,MT2R,84.91,90,202.5,125,227.5,555,SBD,1,
Keegan Umland,18,Wraps,M,MT3R,83.23,90,170,117.5,227.5,515,SBD,1,
